…
``` r
retweet_data <- 
  data %>% 
  filter(retweeted == TRUE) %>% 
  mutate(retweet_screen_name = str_extract(full_text, "(?<=RT @).*?(?=: )"))

retweet_data %>% 
  count(user_screen_name, sort = TRUE)
```

    ## # A tibble: 228 x 2
    ##    user_screen_name      n
    ##    <chr>             <int>
    ##  1 djhivolume       100466
    ##  2 KDonMusik         52046
    ##  3 kingviralposts    32419
    ##  4 MarkusMcLaughln   29089
    ##  5 immisterg         22372
    ##  6 ulthoetaeks       18769
    ##  7 PonyBoy636        16638
    ##  8 lilxicanita       14415
    ##  9 RickJSportPlays   11582
    ## 10 ellerandall        9249
    ## # … with 218 more rows

``` r
retweet_data %>% 
  filter(user_screen_name == "KDonMusik") %>% 
  count(retweet_screen_name, sort = TRUE)
```

    ## # A tibble: 837 x 2
    ##    retweet_screen_name     n
    ##    <chr>               <int>
    ##  1 DJJohnnyO           29464
    ##  2 DJHIVOLUME           7475
    ##  3 ChieMoney             988
    ##  4 PhenomRadio           880
    ##  5 DjDewBaby             710
    ##  6 DjChieMoney           654
    ##  7 mmindsmusic           625
    ##  8 RadioKingzRadio       582
    ##  9 TEMPIREMG             570
    ## 10 SlateStoneMusic       431
    ## # … with 827 more rows

\#\#\#Users created in Jan 2020

``` r
data %>%
  mutate(user_created_at = as.Date(user_created_at)) %>% 
  filter(
    month(user_created_at) == 01, 
    year(user_created_at) == 2020
  ) %>% 
  distinct(user_screen_name)
```

    ## # A tibble: 24 x 1
    ##    user_screen_name
    ##    <chr>           
    ##  1 ConnorN31188726 
    ##  2 Jennife55580973 
    ##  3 LibbyMi62605442 
    ##  4 DeclanBall9     
    ##  5 BrookeWyatt6    
    ##  6 LucyHig29027248 
    ##  7 EliseHo22971629 
    ##  8 AdamWar12       
    ##  9 KeiraRowley     
    ## 10 TobyCooke8      
    ## # … with 14 more rows
…
